root://eoshome.cern.ch//eos/project/r/recast/atlas/scratchdata/ATLAS-CONF-2018-039/mc16d/mc16_13TeV.304122.MadGraphPythia8EvtGen_A14NNPDF23LO_zp2hdm_bb_mzp1400_mA500.deriv.DAOD_EXOT24.e4429_e5984_s3126_r10201_r10210_p3565/DAOD_EXOT24.14190367._000001.pool.root.1
root://eoshome.cern.ch//eos/project/r/recast/atlas/scratchdata/ATLAS-CONF-2018-039/mc16d/mc16_13TeV.304122.MadGraphPythia8EvtGen_A14NNPDF23LO_zp2hdm_bb_mzp1400_mA500.deriv.DAOD_EXOT24.e4429_e5984_s3126_r10201_r10210_p3565/DAOD_EXOT24.14190367._000002.pool.root.1
root://eoshome.cern.ch//eos/project/r/recast/atlas/scratchdata/ATLAS-CONF-2018-039/mc16d/mc16_13TeV.304122.MadGraphPythia8EvtGen_A14NNPDF23LO_zp2hdm_bb_mzp1400_mA500.deriv.DAOD_EXOT24.e4429_e5984_s3126_r10201_r10210_p3565/DAOD_EXOT24.14190367._000003.pool.root.1
root://eoshome.cern.ch//eos/project/r/recast/atlas/scratchdata/ATLAS-CONF-2018-039/mc16d/mc16_13TeV.304122.MadGraphPythia8EvtGen_A14NNPDF23LO_zp2hdm_bb_mzp1400_mA500.deriv.DAOD_EXOT24.e4429_e5984_s3126_r10201_r10210_p3565/DAOD_EXOT24.14190367._000004.pool.root.1
root://eoshome.cern.ch//eos/project/r/recast/atlas/scratchdata/ATLAS-CONF-2018-039/mc16d/mc16_13TeV.304122.MadGraphPythia8EvtGen_A14NNPDF23LO_zp2hdm_bb_mzp1400_mA500.deriv.DAOD_EXOT24.e4429_e5984_s3126_r10201_r10210_p3565/DAOD_EXOT24.14190367._000005.pool.root.1
