root://eoshome.cern.ch//eos/project/r/recast/atlas/scratchdata/ATLAS-CONF-2018-039/mc16d/mc16_13TeV.305217.MadGraphPythia8EvtGen_A14NNPDF23LO_zp2hdm_bb_mzp2000_mA600.deriv.DAOD_EXOT24.e4978_e5984_s3126_r10201_r10210_p3565/DAOD_EXOT24.14190652._000006.pool.root.1
root://eoshome.cern.ch//eos/project/r/recast/atlas/scratchdata/ATLAS-CONF-2018-039/mc16d/mc16_13TeV.305217.MadGraphPythia8EvtGen_A14NNPDF23LO_zp2hdm_bb_mzp2000_mA600.deriv.DAOD_EXOT24.e4978_e5984_s3126_r10201_r10210_p3565/DAOD_EXOT24.14190652._000007.pool.root.1
root://eoshome.cern.ch//eos/project/r/recast/atlas/scratchdata/ATLAS-CONF-2018-039/mc16d/mc16_13TeV.305217.MadGraphPythia8EvtGen_A14NNPDF23LO_zp2hdm_bb_mzp2000_mA600.deriv.DAOD_EXOT24.e4978_e5984_s3126_r10201_r10210_p3565/DAOD_EXOT24.14190652._000008.pool.root.1
root://eoshome.cern.ch//eos/project/r/recast/atlas/scratchdata/ATLAS-CONF-2018-039/mc16d/mc16_13TeV.305217.MadGraphPythia8EvtGen_A14NNPDF23LO_zp2hdm_bb_mzp2000_mA600.deriv.DAOD_EXOT24.e4978_e5984_s3126_r10201_r10210_p3565/DAOD_EXOT24.14190652._000009.pool.root.1
root://eoshome.cern.ch//eos/project/r/recast/atlas/scratchdata/ATLAS-CONF-2018-039/mc16d/mc16_13TeV.305217.MadGraphPythia8EvtGen_A14NNPDF23LO_zp2hdm_bb_mzp2000_mA600.deriv.DAOD_EXOT24.e4978_e5984_s3126_r10201_r10210_p3565/DAOD_EXOT24.14190652._000010.pool.root.1
